{
  "notes": [
    {
      "id": "1",
      "content": "HTML is easy",
      "date": "2022-1-17T17:30:31.098Z",
      "important": false
    },
    {
      "id": "2",
      "content": "Browser can execute only JavaScript",
      "date": "2022-1-17T18:39:34.091Z",
      "important": true
    },
    {
      "id": "3",
      "content": "GET and POST are the most important methods of HTTP protocol",
      "date": "2022-1-17T19:20:14.298Z",
      "important": false
    },
    {
      "id": "be79",
      "content": "Hey ho!",
      "date": "2024-04-25T10:56:40.843Z",
      "important": true
    },
    {
      "id": "bace",
      "content": "sssss",
      "date": "2024-04-25T10:57:39.720Z",
      "important": true
    },
    {
      "id": "d0ba",
      "content": "dsfag",
      "date": "2024-04-25T11:07:15.644Z",
      "important": true
    },
    {
      "id": "8dba",
      "content": "i see",
      "date": "2024-04-25T11:07:19.946Z",
      "important": true
    },
    {
      "id": "b732",
      "content": "so thats how it works :Dddd",
      "date": "2024-04-25T11:07:26.705Z",
      "important": true
    },
    {
      "id": "d9fc",
      "content": "aaaaaaaaaaaa",
      "date": "2024-04-25T11:37:26.537Z",
      "important": false
    },
    {
      "id": "c853",
      "content": "",
      "date": "2024-04-25T11:37:34.126Z",
      "important": true
    },
    {
      "id": "d637",
      "content": "",
      "date": "2024-04-25T11:37:36.290Z",
      "important": true
    },
    {
      "id": "b029",
      "content": "",
      "date": "2024-04-25T11:37:37.021Z",
      "important": true
    }
  ]
}